INDEX VERSION 1.127+E:\Mfiles\.metadata\.plugins\org.eclipse.jdt.core
2557414683.index
1641134556.index
2422925310.index
1566495445.index
2461012514.index
1198800603.index
196192079.index
163172794.index
2444552193.index
2996673209.index
201181853.index
2039201324.index
3974580528.index
3908040486.index
4123703544.index
2757080520.index
2989505211.index
3587024110.index
1531338201.index
101380552.index
2400884294.index
1874345321.index
2113499876.index
3463449445.index
751539035.index
1583519214.index
1140532571.index
1995173708.index
1616011833.index
3747737235.index
2847953501.index
1868640404.index
276082408.index
525711070.index
2047271366.index
728328783.index
2153105523.index
1995711951.index
3358396303.index
4108727661.index
1115467115.index
3742908720.index
3495786674.index
2798033192.index
3284704543.index
183217455.index
1299022128.index
4212844533.index
1709439733.index
3055480069.index
423509106.index
1740673723.index
3065916431.index
2055565923.index
4041092966.index
2444547190.index
4072849046.index
1697886153.index
1099094974.index
861472344.index
2206189669.index
1498219845.index
943858361.index
30765161.index
667279332.index
1193053260.index
4058071383.index
351159187.index
4213352252.index
3133528496.index
305854171.index
589888690.index
4155206848.index
3337619042.index
77308075.index
1801913013.index
3207424334.index
2025588953.index
